{
  "homepage": "http://omriozer.github.io/omri-public-weather-app",
  "name": "weather-app",
  "version": "0.1.0",
  "private": true,
  "dependencies": {
    "@fortawesome/fontawesome-svg-core": "^1.2.28",
    "@fortawesome/free-solid-svg-icons": "^5.13.0",
    "@fortawesome/react-fontawesome": "^0.1.9",
    "@testing-library/jest-dom": "^4.2.4",
    "@testing-library/react": "^9.5.0",
    "@testing-library/user-event": "^7.2.1",
    "axios": "^0.19.2",
    "bootstrap": "^4.5.0",
    "react": "^16.13.1",
    "react-autosuggest": "^10.0.2",
    "react-bootstrap": "^1.0.1",
    "react-dom": "^16.13.1",
    "react-router-dom": "^5.2.0",
    "react-scripts": "3.4.1",
    "react-toastify": "^6.0.5",
    "reactjs-localstorage": "^1.0.1"
  },
  "scripts": {
    "predeploy": "npm run build",
    "deploy": "gh-pages -d build",
    "start": "react-scripts start",
    "build": "react-scripts build",
    "test": "react-scripts test",
    "eject": "react-scripts eject"
  },
  "eslintConfig": {
    "extends": "react-app"
  },
  "browserslist": {
    "production": [
      ">0.2%",
      "not dead",
      "not op_mini all"
    ],
    "development": [
      "last 1 chrome version",
      "last 1 firefox version",
      "last 1 safari version"
    ]
  },
  "devDependencies": {
    "gh-pages": "^3.0.0"
  }
}
